EESchema Schematic File Version 2
LIBS:power
LIBS:device
LIBS:switches
LIBS:relays
LIBS:motors
LIBS:transistors
LIBS:conn
LIBS:linear
LIBS:regul
LIBS:74xx
LIBS:cmos4000
LIBS:adc-dac
LIBS:memory
LIBS:xilinx
LIBS:microcontrollers
LIBS:dsp
LIBS:microchip
LIBS:analog_switches
LIBS:motorola
LIBS:texas
LIBS:intel
LIBS:audio
LIBS:interface
LIBS:digital-audio
LIBS:philips
LIBS:display
LIBS:cypress
LIBS:siliconi
LIBS:opto
LIBS:atmel
LIBS:contrib
LIBS:valves
LIBS:stm32
LIBS:RN42-I_RM
LIBS:stm32f4_lqfp64_board-cache
EELAYER 25 0
EELAYER END
$Descr A3 16535 11693
encoding utf-8
Sheet 1 1
Title ""
Date ""
Rev ""
Comp ""
Comment1 ""
Comment2 ""
Comment3 ""
Comment4 ""
$EndDescr
$Comp
L STM32F405RGTx U?
U 1 1 5B27389F
P 6250 4500
F 0 "U?" H 2050 6425 50  0000 L BNN
F 1 "STM32F405RGTx" H 10450 6425 50  0000 R BNN
F 2 "LQFP64" H 10450 6375 50  0001 R TNN
F 3 "" H 6250 4500 50  0001 C CNN
	1    6250 4500
	1    0    0    -1  
$EndComp
$Comp
L VDD #PWR?
U 1 1 5B273EF9
P 6050 2200
F 0 "#PWR?" H 6050 2050 50  0001 C CNN
F 1 "VDD" H 6050 2350 50  0000 C CNN
F 2 "" H 6050 2200 50  0001 C CNN
F 3 "" H 6050 2200 50  0001 C CNN
	1    6050 2200
	1    0    0    -1  
$EndComp
Wire Wire Line
	6350 2300 6350 2500
Wire Wire Line
	6050 2300 6350 2300
Wire Wire Line
	6250 2300 6250 2500
Wire Wire Line
	6150 2500 6150 2300
Connection ~ 6250 2300
Wire Wire Line
	6050 2200 6050 2500
Connection ~ 6150 2300
$Comp
L C_Small C?
U 1 1 5B278681
P 6550 1850
F 0 "C?" H 6560 1920 50  0000 L CNN
F 1 "C_Small" H 6560 1770 50  0000 L CNN
F 2 "" H 6550 1850 50  0001 C CNN
F 3 "" H 6550 1850 50  0001 C CNN
	1    6550 1850
	1    0    0    -1  
$EndComp
$Comp
L L_Small L?
U 1 1 5B27872D
P 7200 1650
F 0 "L?" H 7230 1690 50  0000 L CNN
F 1 "L_Small" H 7230 1610 50  0000 L CNN
F 2 "" H 7200 1650 50  0001 C CNN
F 3 "" H 7200 1650 50  0001 C CNN
	1    7200 1650
	0    -1   -1   0   
$EndComp
$Comp
L C_Small C?
U 1 1 5B278814
P 7100 1750
F 0 "C?" H 7110 1820 50  0000 L CNN
F 1 "C_Small" H 7110 1670 50  0000 L CNN
F 2 "" H 7100 1750 50  0001 C CNN
F 3 "" H 7100 1750 50  0001 C CNN
	1    7100 1750
	-1   0    0    1   
$EndComp
$Comp
L VDD #PWR?
U 1 1 5B278903
P 7100 1550
F 0 "#PWR?" H 7100 1400 50  0001 C CNN
F 1 "VDD" H 7100 1700 50  0000 C CNN
F 2 "" H 7100 1550 50  0001 C CNN
F 3 "" H 7100 1550 50  0001 C CNN
	1    7100 1550
	1    0    0    -1  
$EndComp
$Comp
L C_Small C?
U 1 1 5B278A37
P 7300 1750
F 0 "C?" H 7310 1820 50  0000 L CNN
F 1 "C_Small" H 7310 1670 50  0000 L CNN
F 2 "" H 7300 1750 50  0001 C CNN
F 3 "" H 7300 1750 50  0001 C CNN
	1    7300 1750
	1    0    0    -1  
$EndComp
$Comp
L C_Small C?
U 1 1 5B278B12
P 7650 1750
F 0 "C?" H 7660 1820 50  0000 L CNN
F 1 "C_Small" H 7660 1670 50  0000 L CNN
F 2 "" H 7650 1750 50  0001 C CNN
F 3 "" H 7650 1750 50  0001 C CNN
	1    7650 1750
	1    0    0    -1  
$EndComp
$Comp
L VDDA #PWR?
U 1 1 5B278B39
P 7650 1550
F 0 "#PWR?" H 7650 1400 50  0001 C CNN
F 1 "VDDA" H 7650 1700 50  0000 C CNN
F 2 "" H 7650 1550 50  0001 C CNN
F 3 "" H 7650 1550 50  0001 C CNN
	1    7650 1550
	1    0    0    -1  
$EndComp
Wire Wire Line
	7300 1650 7650 1650
Wire Wire Line
	7650 1650 7650 1550
Wire Wire Line
	7100 1650 7100 1550
$Comp
L VDDA #PWR?
U 1 1 5B278C98
P 6450 2200
F 0 "#PWR?" H 6450 2050 50  0001 C CNN
F 1 "VDDA" H 6450 2350 50  0000 C CNN
F 2 "" H 6450 2200 50  0001 C CNN
F 3 "" H 6450 2200 50  0001 C CNN
	1    6450 2200
	1    0    0    -1  
$EndComp
Wire Wire Line
	6450 2500 6450 2200
Wire Wire Line
	7100 1850 7650 1850
Connection ~ 7300 1850
$Comp
L GND #PWR?
U 1 1 5B278E1B
P 7300 2000
F 0 "#PWR?" H 7300 1750 50  0001 C CNN
F 1 "GND" H 7300 1850 50  0000 C CNN
F 2 "" H 7300 2000 50  0001 C CNN
F 3 "" H 7300 2000 50  0001 C CNN
	1    7300 2000
	1    0    0    -1  
$EndComp
Wire Wire Line
	7300 2000 7300 1850
Connection ~ 6050 2300
$Comp
L C_Small C?
U 1 1 5B2797D8
P 1500 3600
F 0 "C?" H 1510 3670 50  0000 L CNN
F 1 "C_Small" H 1510 3520 50  0000 L CNN
F 2 "" H 1500 3600 50  0001 C CNN
F 3 "" H 1500 3600 50  0001 C CNN
	1    1500 3600
	-1   0    0    1   
$EndComp
$Comp
L C_Small C?
U 1 1 5B27987C
P 1700 3600
F 0 "C?" H 1710 3670 50  0000 L CNN
F 1 "C_Small" H 1710 3520 50  0000 L CNN
F 2 "" H 1700 3600 50  0001 C CNN
F 3 "" H 1700 3600 50  0001 C CNN
	1    1700 3600
	1    0    0    -1  
$EndComp
Wire Wire Line
	1500 3500 1500 3400
Wire Wire Line
	1500 3400 1950 3400
Wire Wire Line
	1950 3500 1700 3500
Wire Wire Line
	1700 3700 1500 3700
$Comp
L GND #PWR?
U 1 1 5B279930
P 1500 3700
F 0 "#PWR?" H 1500 3450 50  0001 C CNN
F 1 "GND" H 1500 3550 50  0000 C CNN
F 2 "" H 1500 3700 50  0001 C CNN
F 3 "" H 1500 3700 50  0001 C CNN
	1    1500 3700
	1    0    0    -1  
$EndComp
Wire Wire Line
	6150 6500 6350 6500
Connection ~ 6250 6500
$Comp
L GND #PWR?
U 1 1 5B279A32
P 6250 6600
F 0 "#PWR?" H 6250 6350 50  0001 C CNN
F 1 "GND" H 6250 6450 50  0000 C CNN
F 2 "" H 6250 6600 50  0001 C CNN
F 3 "" H 6250 6600 50  0001 C CNN
	1    6250 6600
	1    0    0    -1  
$EndComp
Wire Wire Line
	6250 6600 6250 6500
$Comp
L RN42-I/RM U?
U 1 1 5B279B87
P 13300 8050
F 0 "U?" H 12498 9052 50  0000 L BNN
F 1 "RN42-I/RM" H 12499 6648 50  0000 L BNN
F 2 "XCVR_RN42-I/RM" H 13300 8050 50  0001 L BNN
F 3 "None" H 13300 8050 50  0001 L BNN
F 4 "SMD-35 Roving Networks" H 13300 8050 50  0001 L BNN "Field4"
F 5 "Microchip" H 13300 8050 50  0001 L BNN "Field5"
F 6 "Unavailable" H 13300 8050 50  0001 L BNN "Field6"
F 7 "Bluetooth Module" H 13300 8050 50  0001 L BNN "Field7"
F 8 "RN42-I/RM" H 13300 8050 50  0001 L BNN "Field8"
	1    13300 8050
	1    0    0    -1  
$EndComp
Text GLabel 14300 7350 2    60   Output ~ 0
RN42_TX
Text GLabel 12300 7350 0    60   Input ~ 0
RN42_RX
$Comp
L L_Small L?
U 1 1 5B27A543
P 14300 7050
F 0 "L?" H 14330 7090 50  0000 L CNN
F 1 "L_Small" H 14330 7010 50  0000 L CNN
F 2 "" H 14300 7050 50  0001 C CNN
F 3 "" H 14300 7050 50  0001 C CNN
	1    14300 7050
	1    0    0    -1  
$EndComp
$Comp
L VDD #PWR?
U 1 1 5B27A594
P 14300 6950
F 0 "#PWR?" H 14300 6800 50  0001 C CNN
F 1 "VDD" H 14300 7100 50  0000 C CNN
F 2 "" H 14300 6950 50  0001 C CNN
F 3 "" H 14300 6950 50  0001 C CNN
	1    14300 6950
	1    0    0    -1  
$EndComp
$EndSCHEMATC
